{
    "dpt" : "!dpt - returns the current 4chan daily programming thread.",
    "log" : ["!log - retrieve Itsumi's logs for a specific day.",
            "Usage: !log <day>",
             "<day> could be either 'today', 'yesterday', or a day format like 2018-02-07."],
    "search" : ["!search - Retrieves DuckDuckGo search results for a specified query.",
               "Usage: !search <query>"]
}
